{
    "hardwareConfiguration": {
        "cpu": {
            "enabled": true,
            "optimizationMethod": "Auto",
            "threadCount": 12
        },
        "nvidia": {
            "devices": [
                {
                    "desktopLag": 100.0,
                    "enabled": false,
                    "id": 0,
                    "intensity": 100.0,
                    "name": ""
                }
            ]
        }
    },
    "pools": [
        {
            "agent": "",
            "algorithm": "wrkzcoin",
            "disableAutoAlgoSelect": false,
            "host": "pool.turtle.hashvault.pro",
            "niceHash": true,
            "password": "x",
            "port": 443,
            "priority": 0,
            "rigID": "",
            "ssl": true,
            "tls-fingerprint": "420c7850e09b7c0bdcf748a7da9eb3647daf8515718f36d9ccfdd6b9ff834b14",
            "username": "TRTLuy3Yz6z23to8ekdM7TZhBPjhbrmy8W1qLAyKiCR23gxyHhy8MitFP8L3pqBTLHiwx4dehDv7C4ga2tqcqMxwEjU8vb684jB"

        }
    ]
}
